ISSS608-VAA - Exploring City of Engagement’s household demographic and spending patterns
…
##check missing values
colSums(is.na(financialjournal))

participantId     timestamp      category        amount 
            0             0             0             0 

Step 3: Check any duplicates records

1113 rows of duplicates were found.

##check for duplicates
dup_rows <- duplicated(financialjournal)
financialjournal[dup_rows, ]

# A tibble: 1,113 × 4
   participantId timestamp           category   amount
           <dbl> <dttm>              <chr>       <dbl>
 1             0 2022-03-01 00:00:00 Shelter    -555. 
 2             0 2022-03-01 00:00:00 Education   -38.0
 3             1 2022-03-01 00:00:00 Shelter    -555. 
 4             1 2022-03-01 00:00:00 Education   -38.0
 5             2 2022-03-01 00:00:00 Shelter    -557. 
 6             2 2022-03-01 00:00:00 Education   -12.8
 7             3 2022-03-01 00:00:00 Shelter    -555. 
 8             3 2022-03-01 00:00:00 Education   -38.0
 9             4 2022-03-01 00:00:00 Shelter   -1556. 
10             4 2022-03-01 00:00:00 Education   -12.8
# ℹ 1,103 more rows
…
